7 Tidy text analysis | R for PR evaluation
…
Evaluation: The five most active Twitter accounts are
DaveClubMember1, common_sense54, EdCutter1, Seyahsm2, and BaloIreen.
Let’s also add the less active LateNighter5 for the purpose of practice.

frequency <- data_tknzd %>%
  filter(user == "DaveClubMember1" | user == "common_sense54" | user == "EdCutter1" | user == "Seyahsm2" | user == "BaloIreen" | user == "LateNighter5") %>% # remove all users that are not the most prominent users
  count(user, word, sort = TRUE)  # sorts the word, i.e., the most common words are displayed first

frequency

## # A tibble: 139 × 3
##    user            word                n
##    <chr>           <chr>           <int>
##  1 DaveClubMember1 #prayforukrain     30
##  2 DaveClubMember1 #russiavsukrain    30
##  3 DaveClubMember1 #saveukrain        30
##  4 DaveClubMember1 #stopputin         30
##  5 DaveClubMember1 bio                30
##  6 DaveClubMember1 discord            30
##  7 DaveClubMember1 horribl            30
##  8 DaveClubMember1 imag               30
##  9 DaveClubMember1 join               30
## 10 DaveClubMember1 peopl              30
## # … with 129 more rows
…
data_tknzd$word <- str_replace_all(data_tknzd$word, c("russian" = "russia", "ukrainian" = "ukrain", "american" = "america", "#ukrain" = "ukrain", "#russia" = "russia"))

frequency <- data_tknzd %>%
  filter(user == "DaveClubMember1" | user == "common_sense54" | user == "EdCutter1" | user == "Seyahsm2" | user == "BaloIreen" | user == "LateNighter5") %>% # remove all users that are not the most prominent users
  count(user, word, sort = TRUE)  # sorts the word, i.e., the most common words are displayed first

frequency

## # A tibble: 135 × 3
##    user            word               n
##    <chr>           <chr>          <int>
##  1 Seyahsm2        america           32
##  2 DaveClubMember1 #prayforukrain    30
##  3 DaveClubMember1 #saveukrain       30
##  4 DaveClubMember1 #stopputin        30
##  5 DaveClubMember1 bio               30
##  6 DaveClubMember1 discord           30
##  7 DaveClubMember1 horribl           30
##  8 DaveClubMember1 imag              30
##  9 DaveClubMember1 join              30
## 10 DaveClubMember1 peopl             30
## # … with 125 more rows

Next, we would like now the relative word frequencies. Some twitter
users might have posted a lot, while others have written little, but
used some meaningful words (e.g. “aggression”) excessively. We want to
know the share of these meaningful words as compared to the absolute
number of words posted by the respective user.

frequency <- frequency %>% 
  left_join(data_tknzd %>% 
              count(user, name = "total")) %>%  # total = how many words has that particular user used in total?
  mutate(freq = ((n/total)*100)) # freq = relative frequency of the respective word compared to the total number of words that the user has used

frequency

## # A tibble: 135 × 5
##    user            word               n total  freq
##    <chr>           <chr>          <int> <int> <dbl>
##  1 Seyahsm2        america           32   324  9.88
##  2 DaveClubMember1 #prayforukrain    30   570  5.26
##  3 DaveClubMember1 #saveukrain       30   570  5.26
##  4 DaveClubMember1 #stopputin        30   570  5.26
##  5 DaveClubMember1 bio               30   570  5.26
##  6 DaveClubMember1 discord           30   570  5.26
##  7 DaveClubMember1 horribl           30   570  5.26
##  8 DaveClubMember1 imag              30   570  5.26
##  9 DaveClubMember1 join              30   570  5.26
## 10 DaveClubMember1 peopl             30   570  5.26
## # … with 125 more rows
…
You can plot the word frequencies against each other and get a real good
overview, we need to transform the data in a way that every user has
his/her own column with her/her word frequencies because we need to use
these frequencies on a y- and y-axis. Therefore, we’ll use the
pivot_wider function from the tidyr package that comes pre-installed
with the tidyverse.

frequency_wide <- frequency %>% 
  select(user, word, freq) %>% 
  pivot_wider(names_from = user, values_from = freq)

frequency_wide

## # A tibble: 111 × 7
##    word           Seyahsm2 DaveClubMember1 common_sense54 BaloIreen EdCutter1
##    <chr>             <dbl>           <dbl>          <dbl>     <dbl>     <dbl>
##  1 america            9.88           NA             NA           NA        NA
##  2 #prayforukrain    NA               5.26          NA           NA        NA
##  3 #saveukrain       NA               5.26          NA           NA        NA
##  4 #stopputin        NA               5.26          NA           NA        NA
##  5 bio               NA               5.26          NA           NA        NA
##  6 discord           NA               5.26          NA           NA        NA
##  7 horribl           NA               5.26          NA           NA        NA
##  8 imag              NA               5.26          NA           NA        NA
##  9 join              NA               5.26          NA           NA        NA
## 10 peopl             NA               5.26           4.70        NA        NA
## # … with 101 more rows, and 1 more variable: LateNighter5 <dbl>
…
Let’s investigate which documents have the highest probability for Topic
2, the topic that seems to focus on war deescalation, i.e. stopping the fights.

tidy_lda2 %>%
  filter(topic == 2) %>% 
  arrange(desc(gamma))

## # A tibble: 9,646 × 3
##    document topic gamma
##    <chr>    <int> <dbl>
##  1 9491         2 0.362
##  2 31167        2 0.360
##  3 37585        2 0.356
##  4 36003        2 0.355
##  5 45323        2 0.355
##  6 4485         2 0.355
##  7 18132        2 0.354
##  8 12354        2 0.354
##  9 33538        2 0.353
## 10 26827        2 0.353
## # … with 9,636 more rows
…
## [1] "@mfa_russia @NATO @RussianEmbFinla @Finland_OSCE @GenConFinSPb @Ulkoministerio @EmbFinMoscow @RusEmbNo @natomission_ru @USNATO @StateDept Let’s see, NATO hasn’t invaded anyone to force it to join while Russia has invaded Ukraine to force them to be friendly to Russia. Damn NATO sure is a threat to Russian security."

Interesting! Both tweets are about diplomatic (instead of military) actions, i.e. which countries are in support of the Ukraine joining NATO and of the sovereignty of Ukraine. Of course, we should check more tweets to validate this, but it’s a good start.

For comparison, let’s also look at documents that score high on Topic 1.

tidy_lda2 %>%
  filter(topic == 1) %>% 
  arrange(desc(gamma))

## # A tibble: 9,646 × 3
##    document topic gamma
##    <chr>    <int> <dbl>
##  1 7805         1 0.356
##  2 12781        1 0.355
##  3 40030        1 0.354
##  4 23553        1 0.354
##  5 11080        1 0.353
##  6 1551         1 0.353
##  7 33308        1 0.353
##  8 40417        1 0.353
##  9 46920        1 0.353
## 10 51830        1 0.353
## # … with 9,636 more rows
…
7.5 Sentiment analysis

The process of analyzing valence or emotions in text data is called
sentiment analysis. One way to approach sentiment analysis is to
understand text as a collection of individual words and assign each word
with a negativity / emotion score. The text’s overall sentiment is
interpreted as the sum of these individual scores. Professional,
peer-reviewed “dictionaries” determine what score should be assigned to
each individual word and they always look somewhat like this example:

tidytext::get_sentiments("bing")

## # A tibble: 6,786 × 2
##    word        sentiment
##    <chr>       <chr>    
##  1 2-faces     negative 
##  2 abnormal    negative 
##  3 abolish     negative 
##  4 abominable  negative 
##  5 abominably  negative 
##  6 abominate   negative 
##  7 abomination negative 
##  8 abort       negative 
##  9 aborted     negative 
## 10 aborts      negative 
## # … with 6,776 more rows
…
7.5.3 Sentiment of individual users

Now we can calculate the sentiment for each individual user. Let’s try
it.

data_tknzd_bing <- data_tknzd_bing %>%
  count(user, sentiment, time) %>%
  pivot_wider(names_from = sentiment, values_from = n, values_fill = 0) %>% 
  mutate(sentiment = positive - negative)

data_tknzd_bing %>%
  filter(user == "common_sense54" | user == "EdCutter1" | user == "BaloIreen" | user == "LateNighter5")

## # A tibble: 63 × 5
##    user      time                negative positive sentiment
##    <chr>     <dttm>                 <int>    <int>     <int>
##  1 BaloIreen 2022-02-25 18:02:33        1        2         1
##  2 BaloIreen 2022-02-25 18:02:51        1        2         1
##  3 BaloIreen 2022-02-25 18:02:59        1        2         1
##  4 BaloIreen 2022-02-25 18:03:07        1        2         1
##  5 BaloIreen 2022-02-25 18:03:21        1        2         1
##  6 BaloIreen 2022-02-25 18:03:34        1        2         1
##  7 BaloIreen 2022-02-25 18:03:44        1        2         1
##  8 BaloIreen 2022-02-25 18:09:01        1        2         1
##  9 BaloIreen 2022-02-25 18:09:28        1        2         1
## 10 BaloIreen 2022-02-25 18:06:08        0        1         1
## # … with 53 more rows
…
